{
  "description": "executes a puppet plan",
  "parameters": {    
    "plan": {
      "type": "String[1]",
      "description": "Plan name"
    },
    "target": {
      "type": "String[1]",
      "description": "Target node (certname)"
    },
    "plan_params": {
      "type": "Hash",
      "description": "Hash of parameters for the plan"
    }
  },
  "input_method": "stdin",
  "implementations": [
    {"name": "execute_plan.rb"}
  ]
}
